jhucovid19_code
…
############################# death ################################
covid_death_country_date_avg <- covid_death_country_date_new %>%
  group_by(Country_Region) %>%
  arrange(date) %>%
  mutate(
    new_death_7day = rollmean(new_death, k = 7, fill = NA, align = "right")
  ) %>%
  ungroup()
covid_confirm_country_date_avg

# A tibble: 229,743 × 6
   Country_Region      date       total_confirmed province_count new_confirmed
   <chr>               <date>               <dbl>          <int>         <dbl>
 1 Afghanistan         2020-01-22               0              1            NA
 2 Albania             2020-01-22               0              1            NA
 3 Algeria             2020-01-22               0              1            NA
 4 Andorra             2020-01-22               0              1            NA
 5 Angola              2020-01-22               0              1            NA
 6 Antarctica          2020-01-22               0              1            NA
 7 Antigua and Barbuda 2020-01-22               0              1            NA
 8 Argentina           2020-01-22               0              1            NA
 9 Armenia             2020-01-22               0              1            NA
10 Australia           2020-01-22               0              8            NA
# ℹ 229,733 more rows
# ℹ 1 more variable: new_confirmed_7day <dbl>
…
